<svg xmlns="http://www.w3.org/2000/svg" width="26" height="30" viewBox="0 0 26 30">
  <metadata><?xpacket begin="﻿" id="W5M0MpCehiHzreSzNTczkc9d"?>
<x:xmpmeta xmlns:x="adobe:ns:meta/" x:xmptk="Adobe XMP Core 5.6-c138 79.159824, 2016/09/14-01:09:01        ">
   <rdf:RDF xmlns:rdf="http://www.w3.org/1999/02/22-rdf-syntax-ns#">
      <rdf:Description rdf:about=""/>
   </rdf:RDF>
</x:xmpmeta>
                                                                                                    
                                                                                                    
                                                                                                    
                                                                                                    
                                                                                                    
                                                                                                    
                                                                                                    
                                                                                                    
                                                                                                    
                                                                                                    
                                                                                                    
                                                                                                    
                                                                                                    
                                                                                                    
                                                                                                    
                                                                                                    
                                                                                                    
                                                                                                    
                                                                                                    
                                                                                                    
                           
<?xpacket end="w"?></metadata>
<defs>
    <style>
      .cls-1 {
        fill: #56bdbd;
        fill-rule: evenodd;
      }
    </style>
  </defs>
  <path class="cls-1" d="M661,498v5h0c-2.578,0-5,1.561-5,4.161v11.13A4.687,4.687,0,0,0,660.666,523h16.667A4.687,4.687,0,0,0,682,518.291v-11.13c0-2.6-2.421-4.161-5-4.161h0v-5c0-3.094-2.378-5-5.445-5h-5.111C663.377,493,661,494.906,661,498Zm19,9.579v10.858a2.551,2.551,0,0,1-2.483,2.571H660.486A2.551,2.551,0,0,1,658,518.437V507.579a2.551,2.551,0,0,1,2.483-2.571h17.027A2.521,2.521,0,0,1,680,507.579Zm-4.983-9.587v5H662.986v-5a3.23,3.23,0,0,1,3.38-3h5.267A3.2,3.2,0,0,1,675.013,497.992ZM669,509a4,4,0,1,1-4,4A4,4,0,0,1,669,509Zm0,2a2,2,0,1,1-2,2A2,2,0,0,1,669,511Z" transform="translate(-656 -493)"/>
</svg>
