<svg xmlns="http://www.w3.org/2000/svg" width="18" height="18" viewBox="0 0 18 18">
  <metadata><?xpacket begin="﻿" id="W5M0MpCehiHzreSzNTczkc9d"?>
<x:xmpmeta xmlns:x="adobe:ns:meta/" x:xmptk="Adobe XMP Core 5.6-c138 79.159824, 2016/09/14-01:09:01        ">
   <rdf:RDF xmlns:rdf="http://www.w3.org/1999/02/22-rdf-syntax-ns#">
      <rdf:Description rdf:about=""/>
   </rdf:RDF>
</x:xmpmeta>
                                                                                                    
                                                                                                    
                                                                                                    
                                                                                                    
                                                                                                    
                                                                                                    
                                                                                                    
                                                                                                    
                                                                                                    
                                                                                                    
                                                                                                    
                                                                                                    
                                                                                                    
                                                                                                    
                                                                                                    
                                                                                                    
                                                                                                    
                                                                                                    
                                                                                                    
                                                                                                    
                           
<?xpacket end="w"?></metadata>
<defs>
    <style>
      .cls-1 {
        fill: #56bdbd;
        fill-rule: evenodd;
      }
    </style>
  </defs>
  <path class="cls-1" d="M1400.35,244.867l-2.21-2.223a2.056,2.056,0,0,0-1.51-.644,2.12,2.12,0,0,0-1.51.622l-11.5,11.489a2.1,2.1,0,0,0-.62,1.489v3.289a1.113,1.113,0,0,0,1.11,1.111h3.26a2.144,2.144,0,0,0,1.51-.622l11.45-11.511A2.1,2.1,0,0,0,1400.35,244.867Zm-12.82,12.981a0.513,0.513,0,0,1-.36.147H1385v-2.174a0.5,0.5,0,0,1,.15-0.36l8.47-8.471,2.35,2.354Zm11.3-11.452-1.61,1.61-2.24-2.235,1.62-1.626a0.483,0.483,0,0,1,.68,0l1.55,1.563A0.486,0.486,0,0,1,1398.83,246.4Z" transform="translate(-1383 -242)"/>
</svg>
